…
``` r
enrollment_data %>% 
  mutate(r = ymd_hms(consent_template_timestamp), 
         r = as_date(r)) %>% 
  select(r)
```

    ## Warning: 7 failed to parse.

    ## # A tibble: 2,250 x 1
    ##    r         
    ##    <date>    
    ##  1 NA        
    ##  2 2020-08-07
    ##  3 2020-04-29
    ##  4 2020-04-22
    ##  5 NA        
    ##  6 NA        
    ##  7 2020-04-22
    ##  8 2020-04-22
    ##  9 NA        
    ## 10 NA        
    ## # … with 2,240 more rows
